{
  "totalCount": 823,
  "count": 50,
  "offset": 0,
  "limit": 50,
  "links": {
    "last": {
      "href": "https://local.dev/api/v1/photos?limit=50&offset=800`"
    },
    "next": {
      "href": "https://local.dev/api/v1/photos?limit=50&offset=50"
    },
    "self": {
      "href": "https://local.dev/api/v1/photos?limit=50&offset=0"
    },
    "first": {
      "href": "https://local.dev/api/v1/photos?limit=50&offset=0"
    }
  },
  "photos": [
    {
      "albumId": 1,
      "id": 1,
      "title": "accusamus beatae ad facilis cum similique qui sunt",
      "url": "http://placehold.it/600/92c952",
      "thumbnailUrl": "http://placehold.it/24/30ac17"
    },
    {
      "albumId": 1,
      "id": 2,
      "title": "reprehenderit est deserunt velit ipsam",
      "url": "http://placehold.it/600/771796",
      "thumbnailUrl": "http://placehold.it/24/dff9f6"
    },
    {
      "albumId": 1,
      "id": 3,
      "title": "officia porro iure quia iusto qui ipsa ut modi",
      "url": "http://placehold.it/600/24f355",
      "thumbnailUrl": "http://placehold.it/24/1941e9"
    },
    {
      "albumId": 1,
      "id": 4,
      "title": "culpa odio esse rerum omnis laboriosam voluptate repudiandae",
      "url": "http://placehold.it/600/d32776",
      "thumbnailUrl": "http://placehold.it/24/39e985"
    },
    {
      "albumId": 1,
      "id": 5,
      "title": "natus nisi omnis corporis facere molestiae rerum in",
      "url": "http://placehold.it/600/f66b97",
      "thumbnailUrl": "http://placehold.it/24/7735a"
    },
    {
      "albumId": 1,
      "id": 6,
      "title": "accusamus ea aliquid et amet sequi nemo",
      "url": "http://placehold.it/600/56a8c2",
      "thumbnailUrl": "http://placehold.it/24/c672a0"
    },
    {
      "albumId": 1,
      "id": 7,
      "title": "officia delectus consequatur vero aut veniam explicabo molestias",
      "url": "http://placehold.it/600/b0f7cc",
      "thumbnailUrl": "http://placehold.it/24/4105a5"
    },
    {
      "albumId": 1,
      "id": 8,
      "title": "aut porro officiis laborum odit ea laudantium corporis",
      "url": "http://placehold.it/600/54176f",
      "thumbnailUrl": "http://placehold.it/24/412ffd"
    },
    {
      "albumId": 1,
      "id": 9,
      "title": "qui eius qui autem sed",
      "url": "http://placehold.it/600/51aa97",
      "thumbnailUrl": "http://placehold.it/24/15c072"
    },
    {
      "albumId": 1,
      "id": 10,
      "title": "beatae et provident et ut vel",
      "url": "http://placehold.it/600/810b14",
      "thumbnailUrl": "http://placehold.it/24/980cc2"
    },
    {
      "albumId": 1,
      "id": 11,
      "title": "nihil at amet non hic quia qui",
      "url": "http://placehold.it/600/1ee8a4",
      "thumbnailUrl": "http://placehold.it/24/e65eee"
    },
    {
      "albumId": 1,
      "id": 12,
      "title": "mollitia soluta ut rerum eos aliquam consequatur perspiciatis maiores",
      "url": "http://placehold.it/600/66b7d2",
      "thumbnailUrl": "http://placehold.it/24/bc9589"
    },
    {
      "albumId": 1,
      "id": 13,
      "title": "repudiandae iusto deleniti rerum",
      "url": "http://placehold.it/600/197d29",
      "thumbnailUrl": "http://placehold.it/24/f777f7"
    },
    {
      "albumId": 1,
      "id": 14,
      "title": "est necessitatibus architecto ut laborum",
      "url": "http://placehold.it/600/61a65",
      "thumbnailUrl": "http://placehold.it/24/8fa5e0"
    },
    {
      "albumId": 1,
      "id": 15,
      "title": "harum dicta similique quis dolore earum ex qui",
      "url": "http://placehold.it/600/f9cee5",
      "thumbnailUrl": "http://placehold.it/24/ae926c"
    },
    {
      "albumId": 1,
      "id": 16,
      "title": "iusto sunt nobis quasi veritatis quas expedita voluptatum deserunt",
      "url": "http://placehold.it/600/fdf73e",
      "thumbnailUrl": "http://placehold.it/24/dc71a1"
    },
    {
      "albumId": 1,
      "id": 17,
      "title": "natus doloribus necessitatibus ipsa",
      "url": "http://placehold.it/600/9c184f",
      "thumbnailUrl": "http://placehold.it/24/554a30"
    },
    {
      "albumId": 1,
      "id": 18,
      "title": "laboriosam odit nam necessitatibus et illum dolores reiciendis",
      "url": "http://placehold.it/600/1fe46f",
      "thumbnailUrl": "http://placehold.it/24/ee9c6f"
    },
    {
      "albumId": 1,
      "id": 19,
      "title": "perferendis nesciunt eveniet et optio a",
      "url": "http://placehold.it/600/56acb2",
      "thumbnailUrl": "http://placehold.it/24/531b69"
    },
    {
      "albumId": 1,
      "id": 20,
      "title": "assumenda voluptatem laboriosam enim consequatur veniam placeat reiciendis error",
      "url": "http://placehold.it/600/8985dc",
      "thumbnailUrl": "http://placehold.it/24/c435c1"
    },
    {
      "albumId": 1,
      "id": 21,
      "title": "ad et natus qui",
      "url": "http://placehold.it/600/5e12c6",
      "thumbnailUrl": "http://placehold.it/24/8fe27b"
    },
    {
      "albumId": 1,
      "id": 22,
      "title": "et ea illo et sit voluptas animi blanditiis porro",
      "url": "http://placehold.it/600/45601a",
      "thumbnailUrl": "http://placehold.it/24/305e2c"
    },
    {
      "albumId": 1,
      "id": 23,
      "title": "harum velit vero totam",
      "url": "http://placehold.it/600/e924e6",
      "thumbnailUrl": "http://placehold.it/24/8626dc"
    },
    {
      "albumId": 1,
      "id": 24,
      "title": "beatae officiis ut aut",
      "url": "http://placehold.it/600/8f209a",
      "thumbnailUrl": "http://placehold.it/24/c52599"
    },
    {
      "albumId": 1,
      "id": 25,
      "title": "facere non quis fuga fugit vitae",
      "url": "http://placehold.it/600/5e3a73",
      "thumbnailUrl": "http://placehold.it/24/5bddc1"
    },
    {
      "albumId": 1,
      "id": 26,
      "title": "asperiores nobis voluptate qui",
      "url": "http://placehold.it/600/474645",
      "thumbnailUrl": "http://placehold.it/24/aa4811"
    },
    {
      "albumId": 1,
      "id": 27,
      "title": "sit asperiores est quos quis nisi veniam error",
      "url": "http://placehold.it/600/c984bf",
      "thumbnailUrl": "http://placehold.it/24/f6f2a7"
    },
    {
      "albumId": 1,
      "id": 28,
      "title": "non neque eligendi molestiae repudiandae illum voluptatem qui aut",
      "url": "http://placehold.it/600/392537",
      "thumbnailUrl": "http://placehold.it/24/bcf316"
    },
    {
      "albumId": 1,
      "id": 29,
      "title": "aut ipsam quos ab placeat omnis",
      "url": "http://placehold.it/600/602b9e",
      "thumbnailUrl": "http://placehold.it/24/a01113"
    },
    {
      "albumId": 1,
      "id": 30,
      "title": "odio enim voluptatem quidem aut nihil illum",
      "url": "http://placehold.it/600/372c93",
      "thumbnailUrl": "http://placehold.it/24/96065f"
    },
    {
      "albumId": 1,
      "id": 31,
      "title": "voluptate voluptates sequi",
      "url": "http://placehold.it/600/a7c272",
      "thumbnailUrl": "http://placehold.it/24/ea66a5"
    },
    {
      "albumId": 1,
      "id": 32,
      "title": "ad enim dignissimos voluptatem similique",
      "url": "http://placehold.it/600/c70a4d",
      "thumbnailUrl": "http://placehold.it/24/52bd9c"
    },
    {
      "albumId": 1,
      "id": 33,
      "title": "culpa ipsam nobis qui fuga magni et mollitia",
      "url": "http://placehold.it/600/501fe1",
      "thumbnailUrl": "http://placehold.it/24/772814"
    },
    {
      "albumId": 1,
      "id": 34,
      "title": "vitae est facere quia itaque adipisci perferendis id maiores",
      "url": "http://placehold.it/600/35185e",
      "thumbnailUrl": "http://placehold.it/24/e511d8"
    },
    {
      "albumId": 1,
      "id": 35,
      "title": "tenetur minus voluptatum et",
      "url": "http://placehold.it/600/c96cad",
      "thumbnailUrl": "http://placehold.it/24/dff6ed"
    },
    {
      "albumId": 1,
      "id": 36,
      "title": "expedita rerum eaque",
      "url": "http://placehold.it/600/4d564d",
      "thumbnailUrl": "http://placehold.it/24/ac91a8"
    },
    {
      "albumId": 1,
      "id": 37,
      "title": "totam voluptas iusto deserunt dolores",
      "url": "http://placehold.it/600/ea51da",
      "thumbnailUrl": "http://placehold.it/24/5f54cf"
    },
    {
      "albumId": 1,
      "id": 38,
      "title": "natus magnam iure rerum pariatur molestias dolore nisi",
      "url": "http://placehold.it/600/4f5b8d",
      "thumbnailUrl": "http://placehold.it/24/d8d4fe"
    },
    {
      "albumId": 1,
      "id": 39,
      "title": "molestiae nam ullam et rerum doloribus",
      "url": "http://placehold.it/600/1e71a2",
      "thumbnailUrl": "http://placehold.it/24/efc5cf"
    },
    {
      "albumId": 1,
      "id": 40,
      "title": "est quas voluptates dignissimos sint praesentium nisi recusandae",
      "url": "http://placehold.it/600/3a0b95",
      "thumbnailUrl": "http://placehold.it/24/d1fa89"
    },
    {
      "albumId": 1,
      "id": 41,
      "title": "in voluptatem doloremque cum atque architecto deleniti",
      "url": "http://placehold.it/600/659403",
      "thumbnailUrl": "http://placehold.it/24/fe55f5"
    },
    {
      "albumId": 1,
      "id": 42,
      "title": "voluptatibus a autem molestias voluptas architecto culpa",
      "url": "http://placehold.it/600/ca50ac",
      "thumbnailUrl": "http://placehold.it/24/d39202"
    },
    {
      "albumId": 1,
      "id": 43,
      "title": "eius hic autem ad beatae voluptas",
      "url": "http://placehold.it/600/6ad437",
      "thumbnailUrl": "http://placehold.it/24/ba321b"
    },
    {
      "albumId": 1,
      "id": 44,
      "title": "neque eum provident et inventore sed ipsam dignissimos quo",
      "url": "http://placehold.it/600/29fe9f",
      "thumbnailUrl": "http://placehold.it/24/3edbef"
    },
    {
      "albumId": 1,
      "id": 45,
      "title": "praesentium fugit quis aut voluptatum commodi dolore corrupti",
      "url": "http://placehold.it/600/c4084a",
      "thumbnailUrl": "http://placehold.it/24/648222"
    },
    {
      "albumId": 1,
      "id": 46,
      "title": "quidem maiores in quia fugit dolore explicabo occaecati",
      "url": "http://placehold.it/600/e9b68",
      "thumbnailUrl": "http://placehold.it/24/37dab4"
    },
    {
      "albumId": 1,
      "id": 47,
      "title": "et soluta est",
      "url": "http://placehold.it/600/b4412f",
      "thumbnailUrl": "http://placehold.it/24/6294fd"
    },
    {
      "albumId": 1,
      "id": 48,
      "title": "ut esse id",
      "url": "http://placehold.it/600/68e0a8",
      "thumbnailUrl": "http://placehold.it/24/deaa1a"
    },
    {
      "albumId": 1,
      "id": 49,
      "title": "quasi quae est modi quis quam in impedit",
      "url": "http://placehold.it/600/2cd88b",
      "thumbnailUrl": "http://placehold.it/24/e320ba"
    },
    {
      "albumId": 1,
      "id": 50,
      "title": "et inventore quae ut tempore eius voluptatum",
      "url": "http://placehold.it/600/9e59da",
      "thumbnailUrl": "http://placehold.it/24/5e0a9f"
    }
  ]
}
