{
  "totalCount": 823,
  "count": 50,
  "offset": 50,
  "limit": 50,
  "links": {
    "last": {
      "href": "https://local.dev/api/v1/photos?limit=50&offset=800"
    },
    "next": {
      "href": "https://local.dev/api/v1/photos?limit=50&offset=100"
    },
    "self": {
      "href": "https://local.dev/api/v1/photos?limit=50&offset=50"
    },
    "first": {
      "href": "https://local.dev/api/v1/photos?limit=50&offset=0"
    }
  },
  "photos": [
    {
      "albumId": 2,
      "id": 51,
      "title": "non sunt voluptatem placeat consequuntur rem incidunt",
      "url": "http://placehold.it/600/8e973b",
      "thumbnailUrl": "http://placehold.it/150/bb7f4"
    },
    {
      "albumId": 2,
      "id": 52,
      "title": "eveniet pariatur quia nobis reiciendis laboriosam ea",
      "url": "http://placehold.it/600/121fa4",
      "thumbnailUrl": "http://placehold.it/150/9ed3d5"
    },
    {
      "albumId": 2,
      "id": 53,
      "title": "soluta et harum aliquid officiis ab omnis consequatur",
      "url": "http://placehold.it/600/6efc5f",
      "thumbnailUrl": "http://placehold.it/150/f349d6"
    },
    {
      "albumId": 2,
      "id": 54,
      "title": "ut ex quibusdam dolore mollitia",
      "url": "http://placehold.it/600/aa8f2e",
      "thumbnailUrl": "http://placehold.it/150/d14fd5"
    },
    {
      "albumId": 2,
      "id": 55,
      "title": "voluptatem consequatur totam qui aut iure est vel",
      "url": "http://placehold.it/600/5e04a4",
      "thumbnailUrl": "http://placehold.it/150/5b3533"
    },
    {
      "albumId": 2,
      "id": 56,
      "title": "vel voluptatem esse consequuntur est officia quo aut quisquam",
      "url": "http://placehold.it/600/f9f067",
      "thumbnailUrl": "http://placehold.it/150/5d4dd0"
    },
    {
      "albumId": 2,
      "id": 57,
      "title": "vero est optio expedita quis ut molestiae",
      "url": "http://placehold.it/600/95acce",
      "thumbnailUrl": "http://placehold.it/150/ee6a9c"
    },
    {
      "albumId": 2,
      "id": 58,
      "title": "rem pariatur facere eaque",
      "url": "http://placehold.it/600/cde4c1",
      "thumbnailUrl": "http://placehold.it/150/81d13f"
    },
    {
      "albumId": 2,
      "id": 59,
      "title": "modi totam dolor eaque et ipsum est cupiditate",
      "url": "http://placehold.it/600/a46a91",
      "thumbnailUrl": "http://placehold.it/150/cd1d2a"
    },
    {
      "albumId": 2,
      "id": 60,
      "title": "ea enim temporibus asperiores placeat consectetur commodi ullam",
      "url": "http://placehold.it/600/323599",
      "thumbnailUrl": "http://placehold.it/150/e12c6c"
    },
    {
      "albumId": 2,
      "id": 61,
      "title": "quia minus sed eveniet accusantium incidunt beatae odio",
      "url": "http://placehold.it/600/e403d1",
      "thumbnailUrl": "http://placehold.it/150/c12924"
    },
    {
      "albumId": 2,
      "id": 62,
      "title": "dolorem cumque quo nihil inventore enim",
      "url": "http://placehold.it/600/65ad4f",
      "thumbnailUrl": "http://placehold.it/150/5de0f9"
    },
    {
      "albumId": 2,
      "id": 63,
      "title": "facere animi autem quod dolor",
      "url": "http://placehold.it/600/4e557c",
      "thumbnailUrl": "http://placehold.it/150/2c0db5"
    },
    {
      "albumId": 2,
      "id": 64,
      "title": "doloremque culpa quia",
      "url": "http://placehold.it/600/cd5a92",
      "thumbnailUrl": "http://placehold.it/150/76b95b"
    },
    {
      "albumId": 2,
      "id": 65,
      "title": "sed voluptatum enim eaque cumque qui sunt",
      "url": "http://placehold.it/600/149540",
      "thumbnailUrl": "http://placehold.it/150/44318f"
    },
    {
      "albumId": 2,
      "id": 66,
      "title": "provident rerum voluptatem illo asperiores qui maiores",
      "url": "http://placehold.it/600/ee0a7e",
      "thumbnailUrl": "http://placehold.it/150/8d491"
    },
    {
      "albumId": 2,
      "id": 67,
      "title": "veritatis labore ipsum unde aut quam dolores",
      "url": "http://placehold.it/600/1279e9",
      "thumbnailUrl": "http://placehold.it/150/f2297f"
    },
    {
      "albumId": 2,
      "id": 68,
      "title": "architecto aut quod qui ullam vitae expedita delectus",
      "url": "http://placehold.it/600/e9603b",
      "thumbnailUrl": "http://placehold.it/150/ff5ebe"
    },
    {
      "albumId": 2,
      "id": 69,
      "title": "et autem dolores aut porro est qui",
      "url": "http://placehold.it/600/46e3b1",
      "thumbnailUrl": "http://placehold.it/150/218855"
    },
    {
      "albumId": 2,
      "id": 70,
      "title": "quam quos dolor eum ea in",
      "url": "http://placehold.it/600/7375af",
      "thumbnailUrl": "http://placehold.it/150/1bee4b"
    },
    {
      "albumId": 2,
      "id": 71,
      "title": "illo qui vel laboriosam vel fugit deserunt",
      "url": "http://placehold.it/600/363789",
      "thumbnailUrl": "http://placehold.it/150/f3ca95"
    },
    {
      "albumId": 2,
      "id": 72,
      "title": "iusto sint enim nesciunt facilis exercitationem",
      "url": "http://placehold.it/600/45935c",
      "thumbnailUrl": "http://placehold.it/150/65dca6"
    },
    {
      "albumId": 2,
      "id": 73,
      "title": "rerum exercitationem libero dolor",
      "url": "http://placehold.it/600/1224bd",
      "thumbnailUrl": "http://placehold.it/150/d1b689"
    },
    {
      "albumId": 2,
      "id": 74,
      "title": "eligendi quas consequatur aut consequuntur",
      "url": "http://placehold.it/600/65ac19",
      "thumbnailUrl": "http://placehold.it/150/fabc1f"
    },
    {
      "albumId": 2,
      "id": 75,
      "title": "aut magni quibusdam cupiditate ea",
      "url": "http://placehold.it/600/a9ef52",
      "thumbnailUrl": "http://placehold.it/150/471d26"
    },
    {
      "albumId": 2,
      "id": 76,
      "title": "magni nulla et dolores",
      "url": "http://placehold.it/600/7644fe",
      "thumbnailUrl": "http://placehold.it/150/b9c756"
    },
    {
      "albumId": 2,
      "id": 77,
      "title": "ipsum consequatur vel omnis mollitia repellat dolores quasi",
      "url": "http://placehold.it/600/36d137",
      "thumbnailUrl": "http://placehold.it/150/f0dc33"
    },
    {
      "albumId": 2,
      "id": 78,
      "title": "aperiam aut est amet tenetur et dolorem",
      "url": "http://placehold.it/600/637984",
      "thumbnailUrl": "http://placehold.it/150/98cb85"
    },
    {
      "albumId": 2,
      "id": 79,
      "title": "est vel et laboriosam quo aspernatur distinctio molestiae",
      "url": "http://placehold.it/600/c611a9",
      "thumbnailUrl": "http://placehold.it/150/baa02f"
    },
    {
      "albumId": 2,
      "id": 80,
      "title": "et corrupti nihil cumque",
      "url": "http://placehold.it/600/a0c998",
      "thumbnailUrl": "http://placehold.it/150/3bbf6"
    },
    {
      "albumId": 2,
      "id": 81,
      "title": "error magni fugiat dolorem impedit molestiae illo ullam debitis",
      "url": "http://placehold.it/600/31a74c",
      "thumbnailUrl": "http://placehold.it/150/ebf621"
    },
    {
      "albumId": 2,
      "id": 82,
      "title": "voluptate voluptas molestias vitae illo iusto",
      "url": "http://placehold.it/600/88b703",
      "thumbnailUrl": "http://placehold.it/150/8a8165"
    },
    {
      "albumId": 2,
      "id": 83,
      "title": "quia quasi enim voluptatem repellat sit sint",
      "url": "http://placehold.it/600/a19891",
      "thumbnailUrl": "http://placehold.it/150/b4b309"
    },
    {
      "albumId": 2,
      "id": 84,
      "title": "aliquam dolorem ut modi ratione et assumenda impedit",
      "url": "http://placehold.it/600/b5205d",
      "thumbnailUrl": "http://placehold.it/150/b64008"
    },
    {
      "albumId": 2,
      "id": 85,
      "title": "ullam delectus architecto sint error",
      "url": "http://placehold.it/600/eb7e7f",
      "thumbnailUrl": "http://placehold.it/150/f1771"
    },
    {
      "albumId": 2,
      "id": 86,
      "title": "qui vel ut odio consequuntur",
      "url": "http://placehold.it/600/fd5751",
      "thumbnailUrl": "http://placehold.it/150/876048"
    },
    {
      "albumId": 2,
      "id": 87,
      "title": "eos nihil sunt accusantium omnis",
      "url": "http://placehold.it/600/224566",
      "thumbnailUrl": "http://placehold.it/150/90497"
    },
    {
      "albumId": 2,
      "id": 88,
      "title": "inventore veritatis magnam enim quasi",
      "url": "http://placehold.it/600/75334a",
      "thumbnailUrl": "http://placehold.it/150/7cf1d7"
    },
    {
      "albumId": 2,
      "id": 89,
      "title": "id at cum incidunt nulla dolor vero tenetur",
      "url": "http://placehold.it/600/21d35",
      "thumbnailUrl": "http://placehold.it/150/3b45de"
    },
    {
      "albumId": 2,
      "id": 90,
      "title": "et quae eligendi vitae maxime in",
      "url": "http://placehold.it/600/bfe0dc",
      "thumbnailUrl": "http://placehold.it/150/beda52"
    },
    {
      "albumId": 2,
      "id": 91,
      "title": "sunt quo laborum commodi porro consequatur nam delectus et",
      "url": "http://placehold.it/600/40591",
      "thumbnailUrl": "http://placehold.it/150/83864c"
    },
    {
      "albumId": 2,
      "id": 92,
      "title": "quod non quae",
      "url": "http://placehold.it/600/de79c7",
      "thumbnailUrl": "http://placehold.it/150/957389"
    },
    {
      "albumId": 2,
      "id": 93,
      "title": "molestias et aliquam natus repellendus accusamus dolore",
      "url": "http://placehold.it/600/2edde0",
      "thumbnailUrl": "http://placehold.it/150/3cda3e"
    },
    {
      "albumId": 2,
      "id": 94,
      "title": "et quisquam aspernatur",
      "url": "http://placehold.it/600/cc12f5",
      "thumbnailUrl": "http://placehold.it/150/6cce55"
    },
    {
      "albumId": 2,
      "id": 95,
      "title": "magni odio non",
      "url": "http://placehold.it/600/9cda61",
      "thumbnailUrl": "http://placehold.it/150/82c4ec"
    },
    {
      "albumId": 2,
      "id": 96,
      "title": "dolore esse a in eos sed",
      "url": "http://placehold.it/600/1fb08b",
      "thumbnailUrl": "http://placehold.it/150/21a3ee"
    },
    {
      "albumId": 2,
      "id": 97,
      "title": "labore magnam officiis nemo et",
      "url": "http://placehold.it/600/e2223e",
      "thumbnailUrl": "http://placehold.it/150/6ba424"
    },
    {
      "albumId": 2,
      "id": 98,
      "title": "sed commodi libero id nesciunt modi vitae",
      "url": "http://placehold.it/600/a77d08",
      "thumbnailUrl": "http://placehold.it/150/1681b9"
    },
    {
      "albumId": 2,
      "id": 99,
      "title": "magnam dolor sed enim vel optio consequuntur",
      "url": "http://placehold.it/600/b04f2e",
      "thumbnailUrl": "http://placehold.it/150/f8fcda"
    },
    {
      "albumId": 2,
      "id": 100,
      "title": "et qui rerum",
      "url": "http://placehold.it/600/14ba42",
      "thumbnailUrl": "http://placehold.it/150/93d242"
    }
  ]
}
