{
  "totalCount": 560,
  "count": 50,
  "offset": 50,
  "limit": 50,
  "links": {
    "last": {
      "href": "http://localhost:8280/v1/codes?list=PSSTAXSPCLTY&offset=550&limit=50"
    },
    "next": {
      "href": "http://localhost:8280/v1/codes?list=PSSTAXSPCLTY&offset=100&limit=50"
    },
    "self": {
      "href": "http://localhost:8280/v1/codes?list=PSSTAXSPCLTY&offset=50"
    },
    "first": {
      "href": "http://localhost:8280/v1/codes?list=PSSTAXSPCLTY&offset=0&limit=50"
    }
  },
  "codes": [
    {
      "code": "207RE0101X",
      "value": "ALLOPATHIC & OSTEOPATHIC PHYSICIANS,INTERNAL MEDICINE,ENDOCRINOLOGY, DIABETES & METABOLISM|Endocrinology"
    },
    {
      "code": "207RG0100X",
      "value": "ALLOPATHIC & OSTEOPATHIC PHYSICIANS,INTERNAL MEDICINE,GASTROENTEROLOGY|Gastroenterology"
    },
    {
      "code": "207RG0300X",
      "value": "ALLOPATHIC & OSTEOPATHIC PHYSICIANS,INTERNAL MEDICINE,GERIATRIC MEDICINE|Geriatrics"
    },
    {
      "code": "207RH0003X",
      "value": "ALLOPATHIC & OSTEOPATHIC PHYSICIANS,INTERNAL MEDICINE,HEMATOLOGY & ONCOLOGY|Hematology / Oncology"
    },
    {
      "code": "207RH0000X",
      "value": "ALLOPATHIC & OSTEOPATHIC PHYSICIANS,INTERNAL MEDICINE,HEMATOLOGY|Hematology"
    },
    {
      "code": "207RI0008X",
      "value": "ALLOPATHIC & OSTEOPATHIC PHYSICIANS,INTERNAL MEDICINE,HEPATOLOGY|Hepatology"
    },
    {
      "code": "207RH0002X",
      "value": "ALLOPATHIC & OSTEOPATHIC PHYSICIANS,INTERNAL MEDICINE,HOSPICE AND PALLIATIVE MEDICINE|Internal Medicine"
    },
    {
      "code": "207RI0200X",
      "value": "ALLOPATHIC & OSTEOPATHIC PHYSICIANS,INTERNAL MEDICINE,INFECTIOUS DISEASE|Infectious Disease"
    },
    {
      "code": "207RI0011X",
      "value": "ALLOPATHIC & OSTEOPATHIC PHYSICIANS,INTERNAL MEDICINE,INTERVENTIONAL CARDIOLOGY|Cardiology / Cardiovascular Disease"
    },
    {
      "code": "207RM1200X",
      "value": "ALLOPATHIC & OSTEOPATHIC PHYSICIANS,INTERNAL MEDICINE,MAGNETIC RESONANCE IMAGING (MRI)|Internal Medicine"
    },
    {
      "code": "207RX0202X",
      "value": "ALLOPATHIC & OSTEOPATHIC PHYSICIANS,INTERNAL MEDICINE,MEDICAL ONCOLOGY|Oncology"
    },
    {
      "code": "207RN0300X",
      "value": "ALLOPATHIC & OSTEOPATHIC PHYSICIANS,INTERNAL MEDICINE,NEPHROLOGY|Nephrology"
    },
    {
      "code": "207R00000X",
      "value": "ALLOPATHIC & OSTEOPATHIC PHYSICIANS,INTERNAL MEDICINE,NOT APPLICABLE|Internal Medicine"
    },
    {
      "code": "207RP1001X",
      "value": "ALLOPATHIC & OSTEOPATHIC PHYSICIANS,INTERNAL MEDICINE,PULMONARY DISEASE|Pulmonary Medicine"
    },
    {
      "code": "207RR0500X",
      "value": "ALLOPATHIC & OSTEOPATHIC PHYSICIANS,INTERNAL MEDICINE,RHEUMATOLOGY|Rheumatology"
    },
    {
      "code": "207RS0012X",
      "value": "ALLOPATHIC & OSTEOPATHIC PHYSICIANS,INTERNAL MEDICINE,SLEEP MEDICINE|Internal Medicine"
    },
    {
      "code": "207RS0010X",
      "value": "ALLOPATHIC & OSTEOPATHIC PHYSICIANS,INTERNAL MEDICINE,SPORTS MEDICINE|Sports Medicine"
    },
    {
      "code": "207RT0003X",
      "value": "ALLOPATHIC & OSTEOPATHIC PHYSICIANS,INTERNAL MEDICINE,TRANSPLANT HEPATOLOGY|Hepatology"
    },
    {
      "code": "207SG0202X",
      "value": "ALLOPATHIC & OSTEOPATHIC PHYSICIANS,MEDICAL GENETICS,CLINICAL BIOCHEMICAL GENTICS|Genetics"
    },
    {
      "code": "207SC0300X",
      "value": "ALLOPATHIC & OSTEOPATHIC PHYSICIANS,MEDICAL GENETICS,CLINICAL CYTOGENETICS|Genetics"
    },
    {
      "code": "207SG0201X",
      "value": "ALLOPATHIC & OSTEOPATHIC PHYSICIANS,MEDICAL GENETICS,CLINICAL GENETICS (MD)|Genetics"
    },
    {
      "code": "207SG0203X",
      "value": "ALLOPATHIC & OSTEOPATHIC PHYSICIANS,MEDICAL GENETICS,CLINICAL MOLECULAR GENETICS|Genetics"
    },
    {
      "code": "207SM0001X",
      "value": "ALLOPATHIC & OSTEOPATHIC PHYSICIANS,MEDICAL GENETICS,MOLECULAR GENETIC PATHOLOGY|Pathology"
    },
    {
      "code": "207SG0205X",
      "value": "ALLOPATHIC & OSTEOPATHIC PHYSICIANS,MEDICAL GENETICS,PHD MEDICAL GENETICS|Genetics"
    },
    {
      "code": "207T00000X",
      "value": "ALLOPATHIC & OSTEOPATHIC PHYSICIANS,NEUROLOGICAL SURGERY,NOT APPLICABLE|Neurosurgery"
    },
    {
      "code": "204D00000X",
      "value": "ALLOPATHIC & OSTEOPATHIC PHYSICIANS,NEUROMUSCULOSKELETAL MEDICINE & OMM,NOT APPLICABLE|Manipulative Therapy"
    },
    {
      "code": "204C00000X",
      "value": "ALLOPATHIC & OSTEOPATHIC PHYSICIANS,NEUROMUSCULOSKELETAL MEDICINE, SPORTS MEDICINE,NOT APPLICABLE|Sports Medicine"
    },
    {
      "code": "207UN0903X",
      "value": "ALLOPATHIC & OSTEOPATHIC PHYSICIANS,NUCLEAR MEDICINE,IN VIVO & IN VITRO NUCLEAR MEDICINE|Radiology"
    },
    {
      "code": "207U00000X",
      "value": "ALLOPATHIC & OSTEOPATHIC PHYSICIANS,NUCLEAR MEDICINE,NOT APPLICABLE|Radiology"
    },
    {
      "code": "207UN0901X",
      "value": "ALLOPATHIC & OSTEOPATHIC PHYSICIANS,NUCLEAR MEDICINE,NUCLEAR CARDIOLOGY|Radiology"
    },
    {
      "code": "207UN0902X",
      "value": "ALLOPATHIC & OSTEOPATHIC PHYSICIANS,NUCLEAR MEDICINE,NUCLEAR IMAGING & THERAPY|Radiology"
    },
    {
      "code": "207VB0002X",
      "value": "ALLOPATHIC & OSTEOPATHIC PHYSICIANS,OBSTETRICS & GYNECOLOGY,BARIATRIC MEDICINE|Obstetrics and Gynecology"
    },
    {
      "code": "207VC0200X",
      "value": "ALLOPATHIC & OSTEOPATHIC PHYSICIANS,OBSTETRICS & GYNECOLOGY,CRITICAL CARE MEDICINE|Critical Care"
    },
    {
      "code": "207VF0040X",
      "value": "ALLOPATHIC & OSTEOPATHIC PHYSICIANS,OBSTETRICS & GYNECOLOGY,FEMALE PELVIC MEDICINE AND RECONSTRUCTIVE SURGERY|Gynecolgy"
    },
    {
      "code": "207VX0201X",
      "value": "ALLOPATHIC & OSTEOPATHIC PHYSICIANS,OBSTETRICS & GYNECOLOGY,GYNECOLOGIC ONCOLOGY|Gynecological Oncology"
    },
    {
      "code": "207VG0400X",
      "value": "ALLOPATHIC & OSTEOPATHIC PHYSICIANS,OBSTETRICS & GYNECOLOGY,GYNECOLOGY|Gynecology"
    },
    {
      "code": "207VH0002X",
      "value": "ALLOPATHIC & OSTEOPATHIC PHYSICIANS,OBSTETRICS & GYNECOLOGY,HOSPICE AND PALLIATIVE MEDICINE|Obstetrics and Gynecology"
    },
    {
      "code": "207VM0101X",
      "value": "ALLOPATHIC & OSTEOPATHIC PHYSICIANS,OBSTETRICS & GYNECOLOGY,MATERNAL & FETAL MEDICINE|Maternal Fetal Medicine"
    },
    {
      "code": "207V00000X",
      "value": "ALLOPATHIC & OSTEOPATHIC PHYSICIANS,OBSTETRICS & GYNECOLOGY,NOT APPLICABLE|Obstetrics and Gynecology"
    },
    {
      "code": "207VX0000X",
      "value": "ALLOPATHIC & OSTEOPATHIC PHYSICIANS,OBSTETRICS & GYNECOLOGY,OBSTETRICS|Obstetrics"
    },
    {
      "code": "207VE0102X",
      "value": "ALLOPATHIC & OSTEOPATHIC PHYSICIANS,OBSTETRICS & GYNECOLOGY,REPRODUCTIVE ENDOCRINOLOGY|Reproductive Endocrinology"
    },
    {
      "code": "207W00000X",
      "value": "ALLOPATHIC & OSTEOPATHIC PHYSICIANS,OPHTHALMOLOGY,NOT APPLICABLE|Ophthalmology"
    },
    {
      "code": "204E00000X",
      "value": "ALLOPATHIC & OSTEOPATHIC PHYSICIANS,ORAL & MAXILLOFACIAL SURGERY,NOT APPLICABLE|Oral and Maxillofacial Surgery"
    },
    {
      "code": "207XS0114X",
      "value": "ALLOPATHIC & OSTEOPATHIC PHYSICIANS,ORTHOPAEDIC SURGERY,ADULT RECONSTRUCTIVE ORTHOPAEDIC SURGERY|Orthopedic Surgery"
    },
    {
      "code": "207XX0004X",
      "value": "ALLOPATHIC & OSTEOPATHIC PHYSICIANS,ORTHOPAEDIC SURGERY,FOOT AND ANKLE SURGERY|Orthopedic Surgery"
    },
    {
      "code": "207XS0106X",
      "value": "ALLOPATHIC & OSTEOPATHIC PHYSICIANS,ORTHOPAEDIC SURGERY,HAND SURGERY|Hand Surgery"
    },
    {
      "code": "207X00000X",
      "value": "ALLOPATHIC & OSTEOPATHIC PHYSICIANS,ORTHOPAEDIC SURGERY,NOT APPLICABLE|Orthopedic Surgery"
    },
    {
      "code": "207XS0117X",
      "value": "ALLOPATHIC & OSTEOPATHIC PHYSICIANS,ORTHOPAEDIC SURGERY,ORTHOPAEDIC SURGERY OF THE SPINE|Orthopedic Surgery"
    },
    {
      "code": "207XX0801X",
      "value": "ALLOPATHIC & OSTEOPATHIC PHYSICIANS,ORTHOPAEDIC SURGERY,ORTHOPAEDIC TRAUMA|Orthopedic Surgery"
    },
    {
      "code": "207XP3100X",
      "value": "ALLOPATHIC & OSTEOPATHIC PHYSICIANS,ORTHOPAEDIC SURGERY,PEDIATRIC ORTHOPAEDIC SURGERY|Pediatric Orthopedic Surgery"
    }
  ]
}
